{
 "version": "auto-py-to-exe-configuration_v1",
 "pyinstallerOptions": [
  {
   "optionDest": "noconfirm",
   "value": true
  },
  {
   "optionDest": "filenames",
   "value": "C:/Users/Mahdi/Desktop/HerbFind/Controller.py"
  },
  {
   "optionDest": "onefile",
   "value": false
  },
  {
   "optionDest": "console",
   "value": false
  },
  {
   "optionDest": "icon_file",
   "value": "C:/Users/Mahdi/Desktop/Desk/logo.ico"
  },
  {
   "optionDest": "name",
   "value": "WowBot_V2.3"
  },
  {
   "optionDest": "ascii",
   "value": false
  },
  {
   "optionDest": "clean_build",
   "value": false
  },
  {
   "optionDest": "strip",
   "value": false
  },
  {
   "optionDest": "noupx",
   "value": false
  },
  {
   "optionDest": "uac_admin",
   "value": true
  },
  {
   "optionDest": "uac_uiaccess",
   "value": false
  },
  {
   "optionDest": "win_private_assemblies",
   "value": false
  },
  {
   "optionDest": "win_no_prefer_redirects",
   "value": false
  },
  {
   "optionDest": "bootloader_ignore_signals",
   "value": false
  },
  {
   "optionDest": "datas",
   "value": "C:/Users/Mahdi/Desktop/HerbFind/Ui;Ui/"
  },
  {
   "optionDest": "datas",
   "value": "C:/Users/Mahdi/Desktop/HerbFind/src;src/"
  },
  {
   "optionDest": "datas",
   "value": "C:/Users/Mahdi/Desktop/HerbFind/assets;assets/"
  },
  {
   "optionDest": "datas",
   "value": "C:/Users/Mahdi/Desktop/HerbFind/.log;."
  },
  {
   "optionDest": "datas",
   "value": "C:/Users/Mahdi/Desktop/HerbFind/config.cfg;."
  }
 ],
 "nonPyinstallerOptions": {
  "increaseRecursionLimit": true,
  "manualArguments": ""
 }
}